{"_links":{"self":{"href":"http:\/\/0.0.0.0:8080\/v1.0\/teacher\/review\/1?page=1"},"first":{"href":"http:\/\/0.0.0.0:8080\/v1.0\/teacher\/review\/1"},"last":{"href":"http:\/\/0.0.0.0:8080\/v1.0\/teacher\/review\/1?page=2"},"next":{"href":"http:\/\/0.0.0.0:8080\/v1.0\/teacher\/review\/1?page=2"}},"_embedded":{"reviews":[{"id":18,"entityType":"teacher","entityId":1,"ip":2147483647,"reviewer":"Mike","identity":"Student","rating":5,"comment":"Lorem ipsum dolor sit amet. Lorem ipsum dolor sit amet.Lorem ipsum dolor sit amet. Lorem ipsum dolor sit amet.Lorem ipsum dolor sit amet. Lorem ipsum dolor sit amet.","dateCreated":"2017-04-11T09:56:58+0700","uuid":"86725733-4634-4e3a-9436-6d68fc12b5e7","status":"Approve","activeBln":true,"dateVerify":"2017-04-11T09:56:58+0700","verifiedBy":null,"_links":{"self":{"href":"http:\/\/0.0.0.0:8080\/v1.0\/review\/18"}},"totalRecommendation":"0"},{"id":17,"entityType":"teacher","entityId":1,"ip":2147483647,"reviewer":"Lambert","identity":"Student","rating":5,"comment":"Lorem ipsum dolor sit amet. Lorem ipsum dolor sit amet.Lorem ipsum dolor sit amet. Lorem ipsum dolor sit amet.Lorem ipsum dolor sit amet. Lorem ipsum dolor sit amet.","dateCreated":"2017-04-11T09:56:58+0700","uuid":"b628c369-ec04-4edc-9ccb-dc9539cd5669","status":"Approve","activeBln":true,"dateVerify":"2017-04-11T09:56:58+0700","verifiedBy":null,"_links":{"self":{"href":"http:\/\/0.0.0.0:8080\/v1.0\/review\/17"}},"totalRecommendation":"0"},{"id":16,"entityType":"teacher","entityId":1,"ip":2147483647,"reviewer":"Scott","identity":"Student","rating":5,"comment":"Lorem ipsum dolor sit amet. Lorem ipsum dolor sit amet.Lorem ipsum dolor sit amet. Lorem ipsum dolor sit amet.Lorem ipsum dolor sit amet. Lorem ipsum dolor sit amet.","dateCreated":"2017-04-11T09:56:58+0700","uuid":"0184e3f7-0906-4230-8223-d1c380405ab7","status":"Approve","activeBln":true,"dateVerify":"2017-04-11T09:56:58+0700","verifiedBy":null,"_links":{"self":{"href":"http:\/\/0.0.0.0:8080\/v1.0\/review\/16"}},"totalRecommendation":"0"},{"id":15,"entityType":"teacher","entityId":1,"ip":2147483647,"reviewer":"Dennis","identity":"Parent","rating":5,"comment":"Lorem ipsum dolor sit amet. Lorem ipsum dolor sit amet.Lorem ipsum dolor sit amet. Lorem ipsum dolor sit amet.Lorem ipsum dolor sit amet. Lorem ipsum dolor sit amet.","dateCreated":"2017-04-11T09:56:58+0700","uuid":"c64c5291-b832-4f93-a0e2-6c087b173b6b","status":"Approve","activeBln":true,"dateVerify":"2017-04-11T09:56:58+0700","verifiedBy":null,"_links":{"self":{"href":"http:\/\/0.0.0.0:8080\/v1.0\/review\/15"}},"totalRecommendation":"0"}]},"page_count":2,"page_size":4,"total_items":8,"page":1}