{"_links":{"self":{"href":"http:\/\/0.0.0.0:8080\/v1.0\/teacher\/review\/2?page=1"},"first":{"href":"http:\/\/0.0.0.0:8080\/v1.0\/teacher\/review\/2"},"last":{"href":"http:\/\/0.0.0.0:8080\/v1.0\/teacher\/review\/2?page=2"},"next":{"href":"http:\/\/0.0.0.0:8080\/v1.0\/teacher\/review\/2?page=2"}},"_embedded":{"reviews":[{"id":27,"entityType":"teacher","entityId":2,"ip":2147483647,"reviewer":"Mike","identity":"Student","rating":5,"comment":"Lorem ipsum dolor sit amet. Lorem ipsum dolor sit amet.Lorem ipsum dolor sit amet. Lorem ipsum dolor sit amet.Lorem ipsum dolor sit amet. Lorem ipsum dolor sit amet.","dateCreated":"2017-04-11T09:56:58+0700","uuid":"1e417eef-eb28-42dc-a3a2-2e778684def5","status":"Approve","activeBln":true,"dateVerify":"2017-04-11T09:56:58+0700","verifiedBy":null,"_links":{"self":{"href":"http:\/\/0.0.0.0:8080\/v1.0\/review\/27"}},"totalRecommendation":"0"},{"id":26,"entityType":"teacher","entityId":2,"ip":2147483647,"reviewer":"Lambert","identity":"Student","rating":5,"comment":"Lorem ipsum dolor sit amet. Lorem ipsum dolor sit amet.Lorem ipsum dolor sit amet. Lorem ipsum dolor sit amet.Lorem ipsum dolor sit amet. Lorem ipsum dolor sit amet.","dateCreated":"2017-04-11T09:56:58+0700","uuid":"068c32e0-0c8c-40e7-bbfb-4f161c420d0a","status":"Approve","activeBln":true,"dateVerify":"2017-04-11T09:56:58+0700","verifiedBy":null,"_links":{"self":{"href":"http:\/\/0.0.0.0:8080\/v1.0\/review\/26"}},"totalRecommendation":"0"},{"id":25,"entityType":"teacher","entityId":2,"ip":2147483647,"reviewer":"Scott","identity":"Student","rating":5,"comment":"Lorem ipsum dolor sit amet. Lorem ipsum dolor sit amet.Lorem ipsum dolor sit amet. Lorem ipsum dolor sit amet.Lorem ipsum dolor sit amet. Lorem ipsum dolor sit amet.","dateCreated":"2017-04-11T09:56:58+0700","uuid":"eb9bcf32-32dc-4d57-977a-54bc1a791950","status":"Approve","activeBln":true,"dateVerify":"2017-04-11T09:56:58+0700","verifiedBy":null,"_links":{"self":{"href":"http:\/\/0.0.0.0:8080\/v1.0\/review\/25"}},"totalRecommendation":"0"},{"id":24,"entityType":"teacher","entityId":2,"ip":2147483647,"reviewer":"Dennis","identity":"Parent","rating":5,"comment":"Lorem ipsum dolor sit amet. Lorem ipsum dolor sit amet.Lorem ipsum dolor sit amet. Lorem ipsum dolor sit amet.Lorem ipsum dolor sit amet. Lorem ipsum dolor sit amet.","dateCreated":"2017-04-11T09:56:58+0700","uuid":"95aa5fc5-7dfd-42de-8783-c6cd9b2daf50","status":"Approve","activeBln":true,"dateVerify":"2017-04-11T09:56:58+0700","verifiedBy":null,"_links":{"self":{"href":"http:\/\/0.0.0.0:8080\/v1.0\/review\/24"}},"totalRecommendation":"0"}]},"page_count":2,"page_size":4,"total_items":8,"page":1}