{"_links":{"self":{"href":"http:\/\/0.0.0.0:8080\/v1.0\/teacher\/review\/3?page=1"},"first":{"href":"http:\/\/0.0.0.0:8080\/v1.0\/teacher\/review\/3"},"last":{"href":"http:\/\/0.0.0.0:8080\/v1.0\/teacher\/review\/3?page=2"},"next":{"href":"http:\/\/0.0.0.0:8080\/v1.0\/teacher\/review\/3?page=2"}},"_embedded":{"reviews":[{"id":36,"entityType":"teacher","entityId":3,"ip":2147483647,"reviewer":"Mike","identity":"Student","rating":5,"comment":"Lorem ipsum dolor sit amet. Lorem ipsum dolor sit amet.Lorem ipsum dolor sit amet. Lorem ipsum dolor sit amet.Lorem ipsum dolor sit amet. Lorem ipsum dolor sit amet.","dateCreated":"2017-04-11T09:56:58+0700","uuid":"02516cf4-9d93-4c1f-bb68-d3e1d746202c","status":"Approve","activeBln":true,"dateVerify":"2017-04-11T09:56:58+0700","verifiedBy":null,"_links":{"self":{"href":"http:\/\/0.0.0.0:8080\/v1.0\/review\/36"}},"totalRecommendation":"0"},{"id":35,"entityType":"teacher","entityId":3,"ip":2147483647,"reviewer":"Lambert","identity":"Student","rating":5,"comment":"Lorem ipsum dolor sit amet. Lorem ipsum dolor sit amet.Lorem ipsum dolor sit amet. Lorem ipsum dolor sit amet.Lorem ipsum dolor sit amet. Lorem ipsum dolor sit amet.","dateCreated":"2017-04-11T09:56:58+0700","uuid":"0a1ddd1b-2284-4290-910e-a6d7b2102ec0","status":"Approve","activeBln":true,"dateVerify":"2017-04-11T09:56:58+0700","verifiedBy":null,"_links":{"self":{"href":"http:\/\/0.0.0.0:8080\/v1.0\/review\/35"}},"totalRecommendation":"0"},{"id":34,"entityType":"teacher","entityId":3,"ip":2147483647,"reviewer":"Scott","identity":"Student","rating":5,"comment":"Lorem ipsum dolor sit amet. Lorem ipsum dolor sit amet.Lorem ipsum dolor sit amet. Lorem ipsum dolor sit amet.Lorem ipsum dolor sit amet. Lorem ipsum dolor sit amet.","dateCreated":"2017-04-11T09:56:58+0700","uuid":"a2ab5120-a555-4d43-bd1e-e8519d70898d","status":"Approve","activeBln":true,"dateVerify":"2017-04-11T09:56:58+0700","verifiedBy":null,"_links":{"self":{"href":"http:\/\/0.0.0.0:8080\/v1.0\/review\/34"}},"totalRecommendation":"0"},{"id":33,"entityType":"teacher","entityId":3,"ip":2147483647,"reviewer":"Dennis","identity":"Parent","rating":5,"comment":"Lorem ipsum dolor sit amet. Lorem ipsum dolor sit amet.Lorem ipsum dolor sit amet. Lorem ipsum dolor sit amet.Lorem ipsum dolor sit amet. Lorem ipsum dolor sit amet.","dateCreated":"2017-04-11T09:56:58+0700","uuid":"74c3a92e-8f64-447c-a322-3041a0c75ca8","status":"Approve","activeBln":true,"dateVerify":"2017-04-11T09:56:58+0700","verifiedBy":null,"_links":{"self":{"href":"http:\/\/0.0.0.0:8080\/v1.0\/review\/33"}},"totalRecommendation":"0"}]},"page_count":2,"page_size":4,"total_items":8,"page":1}