{"_links":{"self":{"href":"http:\/\/0.0.0.0:8080\/v1.0\/teacher\/review\/4page=1?page=1"},"first":{"href":"http:\/\/0.0.0.0:8080\/v1.0\/teacher\/review\/4page=1"},"last":{"href":"http:\/\/0.0.0.0:8080\/v1.0\/teacher\/review\/4page=1?page=2"},"next":{"href":"http:\/\/0.0.0.0:8080\/v1.0\/teacher\/review\/4page=1?page=2"}},"_embedded":{"reviews":[{"id":45,"entityType":"teacher","entityId":4,"ip":2147483647,"reviewer":"Mike","identity":"Student","rating":5,"comment":"Lorem ipsum dolor sit amet. Lorem ipsum dolor sit amet.Lorem ipsum dolor sit amet. Lorem ipsum dolor sit amet.Lorem ipsum dolor sit amet. Lorem ipsum dolor sit amet.","dateCreated":"2017-04-11T09:56:58+0700","uuid":"1c9df7c8-8163-4d80-b7a7-fb77386657eb","status":"Approve","activeBln":true,"dateVerify":"2017-04-11T09:56:58+0700","verifiedBy":null,"_links":{"self":{"href":"http:\/\/0.0.0.0:8080\/v1.0\/review\/45"}},"totalRecommendation":"0"},{"id":44,"entityType":"teacher","entityId":4,"ip":2147483647,"reviewer":"Lambert","identity":"Student","rating":5,"comment":"Lorem ipsum dolor sit amet. Lorem ipsum dolor sit amet.Lorem ipsum dolor sit amet. Lorem ipsum dolor sit amet.Lorem ipsum dolor sit amet. Lorem ipsum dolor sit amet.","dateCreated":"2017-04-11T09:56:58+0700","uuid":"1bcc51a7-242d-442b-82bc-c79117b8b804","status":"Approve","activeBln":true,"dateVerify":"2017-04-11T09:56:58+0700","verifiedBy":null,"_links":{"self":{"href":"http:\/\/0.0.0.0:8080\/v1.0\/review\/44"}},"totalRecommendation":"0"},{"id":43,"entityType":"teacher","entityId":4,"ip":2147483647,"reviewer":"Scott","identity":"Student","rating":5,"comment":"Lorem ipsum dolor sit amet. Lorem ipsum dolor sit amet.Lorem ipsum dolor sit amet. Lorem ipsum dolor sit amet.Lorem ipsum dolor sit amet. Lorem ipsum dolor sit amet.","dateCreated":"2017-04-11T09:56:58+0700","uuid":"30579ece-73c2-4c1d-8c55-fcc803bc0115","status":"Approve","activeBln":true,"dateVerify":"2017-04-11T09:56:58+0700","verifiedBy":null,"_links":{"self":{"href":"http:\/\/0.0.0.0:8080\/v1.0\/review\/43"}},"totalRecommendation":"0"},{"id":42,"entityType":"teacher","entityId":4,"ip":2147483647,"reviewer":"Dennis","identity":"Parent","rating":5,"comment":"Lorem ipsum dolor sit amet. Lorem ipsum dolor sit amet.Lorem ipsum dolor sit amet. Lorem ipsum dolor sit amet.Lorem ipsum dolor sit amet. Lorem ipsum dolor sit amet.","dateCreated":"2017-04-11T09:56:58+0700","uuid":"5553d7ed-db44-4cf7-a600-98196c83dc9d","status":"Approve","activeBln":true,"dateVerify":"2017-04-11T09:56:58+0700","verifiedBy":null,"_links":{"self":{"href":"http:\/\/0.0.0.0:8080\/v1.0\/review\/42"}},"totalRecommendation":"0"}]},"page_count":2,"page_size":4,"total_items":8,"page":1}