{"_links":{"self":{"href":"http:\/\/0.0.0.0:8080\/v1.0\/teacher\/review\/5?page=1"},"first":{"href":"http:\/\/0.0.0.0:8080\/v1.0\/teacher\/review\/5"},"last":{"href":"http:\/\/0.0.0.0:8080\/v1.0\/teacher\/review\/5?page=2"},"next":{"href":"http:\/\/0.0.0.0:8080\/v1.0\/teacher\/review\/5?page=2"}},"_embedded":{"reviews":[{"id":54,"entityType":"teacher","entityId":5,"ip":2147483647,"reviewer":"Mike","identity":"Student","rating":5,"comment":"Lorem ipsum dolor sit amet. Lorem ipsum dolor sit amet.Lorem ipsum dolor sit amet. Lorem ipsum dolor sit amet.Lorem ipsum dolor sit amet. Lorem ipsum dolor sit amet.","dateCreated":"2017-04-11T09:56:58+0700","uuid":"9e016429-99de-4119-bc64-fbde98145541","status":"Approve","activeBln":true,"dateVerify":"2017-04-11T09:56:58+0700","verifiedBy":null,"_links":{"self":{"href":"http:\/\/0.0.0.0:8080\/v1.0\/review\/54"}},"totalRecommendation":"0"},{"id":53,"entityType":"teacher","entityId":5,"ip":2147483647,"reviewer":"Lambert","identity":"Student","rating":5,"comment":"Lorem ipsum dolor sit amet. Lorem ipsum dolor sit amet.Lorem ipsum dolor sit amet. Lorem ipsum dolor sit amet.Lorem ipsum dolor sit amet. Lorem ipsum dolor sit amet.","dateCreated":"2017-04-11T09:56:58+0700","uuid":"a67f5db7-2567-499f-8efb-381fb58c03b0","status":"Approve","activeBln":true,"dateVerify":"2017-04-11T09:56:58+0700","verifiedBy":null,"_links":{"self":{"href":"http:\/\/0.0.0.0:8080\/v1.0\/review\/53"}},"totalRecommendation":"0"},{"id":52,"entityType":"teacher","entityId":5,"ip":2147483647,"reviewer":"Scott","identity":"Student","rating":5,"comment":"Lorem ipsum dolor sit amet. Lorem ipsum dolor sit amet.Lorem ipsum dolor sit amet. Lorem ipsum dolor sit amet.Lorem ipsum dolor sit amet. Lorem ipsum dolor sit amet.","dateCreated":"2017-04-11T09:56:58+0700","uuid":"de419c7c-af7a-4b8e-87d4-550bd5f5747b","status":"Approve","activeBln":true,"dateVerify":"2017-04-11T09:56:58+0700","verifiedBy":null,"_links":{"self":{"href":"http:\/\/0.0.0.0:8080\/v1.0\/review\/52"}},"totalRecommendation":"0"},{"id":51,"entityType":"teacher","entityId":5,"ip":2147483647,"reviewer":"Dennis","identity":"Parent","rating":5,"comment":"Lorem ipsum dolor sit amet. Lorem ipsum dolor sit amet.Lorem ipsum dolor sit amet. Lorem ipsum dolor sit amet.Lorem ipsum dolor sit amet. Lorem ipsum dolor sit amet.","dateCreated":"2017-04-11T09:56:58+0700","uuid":"85484b0b-efb1-4ec2-9d7b-fe707236f031","status":"Approve","activeBln":true,"dateVerify":"2017-04-11T09:56:58+0700","verifiedBy":null,"_links":{"self":{"href":"http:\/\/0.0.0.0:8080\/v1.0\/review\/51"}},"totalRecommendation":"0"}]},"page_count":2,"page_size":4,"total_items":8,"page":1}