{"_links":{"self":{"href":"http:\/\/0.0.0.0:8080\/v1.0\/review\/school?page=1"},"first":{"href":"http:\/\/0.0.0.0:8080\/v1.0\/review\/school"},"last":{"href":"http:\/\/0.0.0.0:8080\/v1.0\/review\/school?page=3"},"next":{"href":"http:\/\/0.0.0.0:8080\/v1.0\/review\/school?page=2"}},"_embedded":{"review":[{"id":9,"entityType":"school","entityId":1,"ip":2147483647,"reviewer":"Foo","identity":"Parent","rating":5,"comment":"Lorem ipsum dolor sit amet. Lorem ipsum dolor sit amet.Lorem ipsum dolor sit amet. Lorem ipsum dolor sit amet.Lorem ipsum dolor sit amet. Lorem ipsum dolor sit amet.","dateCreated":"2017-04-11T09:56:58+0700","uuid":"bfc3c72e-141b-495d-a1c9-9a67b3b139d2","status":"Approve","activeBln":true,"dateVerify":"2017-04-11T09:56:58+0700","verifiedBy":null,"_links":{"self":{"href":"http:\/\/0.0.0.0:8080\/v1.0\/review\/school\/9"}},"totalRecommendation":"0"},{"id":8,"entityType":"school","entityId":1,"ip":2147483647,"reviewer":"Dennis Ritchie","identity":"Parent","rating":5,"comment":"Lorem ipsum dolor sit amet. Lorem ipsum dolor sit amet.Lorem ipsum dolor sit amet. Lorem ipsum dolor sit amet.Lorem ipsum dolor sit amet. Lorem ipsum dolor sit amet.","dateCreated":"2017-04-11T09:56:58+0700","uuid":"5a5dc52c-e919-454b-bcd5-416a8d310162","status":"Approve","activeBln":true,"dateVerify":"2017-04-11T09:56:58+0700","verifiedBy":null,"_links":{"self":{"href":"http:\/\/0.0.0.0:8080\/v1.0\/review\/school\/8"}},"totalRecommendation":"0"},{"id":7,"entityType":"school","entityId":1,"ip":2147483647,"reviewer":"Linus Torvald","identity":"Teacher","rating":5,"comment":"Lorem ipsum dolor sit amet. Lorem ipsum dolor sit amet.Lorem ipsum dolor sit amet. Lorem ipsum dolor sit amet.Lorem ipsum dolor sit amet. Lorem ipsum dolor sit amet.","dateCreated":"2017-04-11T09:56:58+0700","uuid":"ad8b564a-03ef-4966-91d2-110c448f09ac","status":"Approve","activeBln":true,"dateVerify":"2017-04-11T09:56:58+0700","verifiedBy":null,"_links":{"self":{"href":"http:\/\/0.0.0.0:8080\/v1.0\/review\/school\/7"}},"totalRecommendation":"0"},{"id":6,"entityType":"school","entityId":1,"ip":2147483647,"reviewer":"Steve Balmer","identity":"Teacher","rating":5,"comment":"Lorem ipsum dolor sit amet. Lorem ipsum dolor sit amet.Lorem ipsum dolor sit amet. Lorem ipsum dolor sit amet.Lorem ipsum dolor sit amet. Lorem ipsum dolor sit amet.","dateCreated":"2017-04-11T09:56:58+0700","uuid":"e0d9d3bd-918d-4aa8-8a4d-06f5f8fc50d5","status":"Approve","activeBln":true,"dateVerify":"2017-04-11T09:56:58+0700","verifiedBy":null,"_links":{"self":{"href":"http:\/\/0.0.0.0:8080\/v1.0\/review\/school\/6"}},"totalRecommendation":"0"}]},"page_count":3,"page_size":4,"total_items":9,"page":1}